{
    "steps": [
    {
        "name": "gcr.io/cloud-builders/docker",
        "entrypoint": "bash",
        "args": ["-c", "docker pull eu.gcr.io/$PROJECT_ID/gcloud-sbcl:latest || exit 0"]
    },
    {
        "name": "gcr.io/cloud-builders/docker",
        "args": [
            "build",
            "-t",
            "eu.gcr.io/$PROJECT_ID/gcloud-sbcl:latest",
            "--cache-from",
            "eu.gcr.io/$PROJECT_ID/gcloud-sbcl:latest",
            "."
        ]
    }
    ],
    "images": ["eu.gcr.io/$PROJECT_ID/gcloud-sbcl:latest"]
}
